[gd_scene load_steps=4 format=2]

[ext_resource path="res://textures/money/money-1.png" type="Texture" id=1]
[ext_resource path="res://scripts/coins/coin.gd" type="Script" id=2]

[sub_resource type="RectangleShape2D" id=1]
extents = Vector2( 13.3979, 24.5427 )

[node name="coin" type="RigidBody2D"]
collision_layer = 4
collision_mask = 33
mode = 2
gravity_scale = 0.0
contacts_reported = 10
contact_monitor = true
linear_velocity = Vector2( -100, 0 )
linear_damp = 0.0
script = ExtResource( 2 )

[node name="Sprite" type="Sprite" parent="."]
texture = ExtResource( 1 )

[node name="CollisionShape2D" type="CollisionShape2D" parent="."]
shape = SubResource( 1 )

[connection signal="body_entered" from="." to="." method="_on_coin_body_entered"]
